{
	"credit": "Made with Blockbench",
	"texture_size": [32, 32],
	"textures": {
		"0": "block/18560_cells",
		"particle": "block/18560_cells_on"
	},
	"elements": [
		{
			"name": "c1",
			"from": [11, 3, 1],
			"to": [15, 14, 5],
			"faces": {
				"north": {"uv": [4, 4, 2, 9.5], "texture": "#0"},
				"east": {"uv": [0, 2, 5.5, 4], "rotation": 270, "texture": "#0"},
				"south": {"uv": [2, 9.5, 0, 4], "rotation": 180, "texture": "#0"},
				"west": {"uv": [0, 0, 5.5, 2], "rotation": 90, "texture": "#0"},
				"up": {"uv": [5.5, 0, 7.5, 2], "rotation": 180, "texture": "#0"},
				"down": {"uv": [4, 4, 6, 6], "texture": "#0"}
			}
		},
		{
			"name": "c3",
			"from": [1, 3, 1],
			"to": [5, 14, 5],
			"faces": {
				"north": {"uv": [2, 4, 4, 9.5], "texture": "#0"},
				"east": {"uv": [0, 2, 5.5, 4], "rotation": 270, "texture": "#0"},
				"south": {"uv": [0, 4, 2, 9.5], "texture": "#0"},
				"west": {"uv": [0, 0, 5.5, 2], "rotation": 90, "texture": "#0"},
				"up": {"uv": [5.5, 0, 7.5, 2], "rotation": 180, "texture": "#0"},
				"down": {"uv": [4, 4, 6, 6], "texture": "#0"}
			}
		},
		{
			"name": "c2",
			"from": [6, 2, 1],
			"to": [10, 13, 5],
			"faces": {
				"north": {"uv": [2, 4, 4, 9.5], "texture": "#0"},
				"east": {"uv": [0, 0, 5.5, 2], "rotation": 270, "texture": "#0"},
				"south": {"uv": [0, 4, 2, 9.5], "rotation": 180, "texture": "#0"},
				"west": {"uv": [0, 2, 5.5, 4], "rotation": 90, "texture": "#0"},
				"up": {"uv": [4, 4, 6, 6], "rotation": 180, "texture": "#0"},
				"down": {"uv": [5.5, 0, 7.5, 2], "texture": "#0"}
			}
		},
		{
			"name": "p2",
			"from": [7, 13, 2],
			"to": [9, 14, 4],
			"faces": {
				"north": {"uv": [6.625, 4.875, 7.625, 5.375], "texture": "#0"},
				"east": {"uv": [6.125, 2.375, 6.625, 3.375], "rotation": 270, "texture": "#0"},
				"south": {"uv": [6.625, 3.375, 7.625, 3.875], "rotation": 180, "texture": "#0"},
				"west": {"uv": [7.625, 2.375, 8.125, 3.375], "rotation": 90, "texture": "#0"},
				"up": {"uv": [6.625, 3.875, 7.625, 4.875], "rotation": 180, "texture": "#0"},
				"down": {"uv": [6.625, 2.375, 7.625, 3.375], "texture": "#0"}
			}
		},
		{
			"name": "p3",
			"from": [2, 2, 2],
			"to": [4, 3, 4],
			"faces": {
				"north": {"uv": [6.625, 4.875, 7.625, 5.375], "texture": "#0"},
				"east": {"uv": [6.125, 2.375, 6.625, 3.375], "rotation": 270, "texture": "#0"},
				"south": {"uv": [6.625, 3.375, 7.625, 3.875], "rotation": 180, "texture": "#0"},
				"west": {"uv": [7.625, 2.375, 8.125, 3.375], "rotation": 90, "texture": "#0"},
				"up": {"uv": [6.625, 3.875, 7.625, 4.875], "rotation": 180, "texture": "#0"},
				"down": {"uv": [6.625, 2.375, 7.625, 3.375], "texture": "#0"}
			}
		},
		{
			"name": "p1",
			"from": [12, 2, 2],
			"to": [14, 3, 4],
			"faces": {
				"north": {"uv": [6.625, 3.375, 7.625, 3.875], "texture": "#0"},
				"east": {"uv": [6.125, 2.375, 6.625, 3.375], "rotation": 270, "texture": "#0"},
				"south": {"uv": [6.625, 4.875, 7.625, 5.375], "rotation": 180, "texture": "#0"},
				"west": {"uv": [7.625, 2.375, 8.125, 3.375], "rotation": 90, "texture": "#0"},
				"up": {"uv": [6.625, 2.375, 7.625, 3.375], "rotation": 180, "texture": "#0"},
				"down": {"uv": [6.625, 3.875, 7.625, 4.875], "texture": "#0"}
			}
		},
		{
			"name": "base",
			"from": [0, 0, 0],
			"to": [16, 16, 1],
			"faces": {
				"north": {"uv": [8, 7.875, 16, 15.875], "texture": "#0"},
				"east": {"uv": [8, 7.375, 16, 7.875], "rotation": 270, "texture": "#0"},
				"south": {"uv": [8, 7.875, 16, 15.875], "rotation": 180, "texture": "#0"},
				"west": {"uv": [8, 6.375, 16, 6.875], "rotation": 90, "texture": "#0"},
				"up": {"uv": [8, 6.875, 16, 7.375], "rotation": 180, "texture": "#0"},
				"down": {"uv": [8, 5.875, 16, 6.375], "texture": "#0"}
			}
		},
		{
			"name": "l1",
			"from": [1, 1, 1],
			"to": [10, 2, 4.25],
			"faces": {
				"north": {"uv": [0, 13.5, 4.5, 14], "texture": "#0"},
				"east": {"uv": [4.5, 14, 5, 16], "rotation": 270, "texture": "#0"},
				"south": {"uv": [0, 11, 4.5, 11.5], "rotation": 180, "texture": "#0"},
				"west": {"uv": [4.5, 11.5, 5, 13.5], "rotation": 90, "texture": "#0"},
				"up": {"uv": [0, 14, 4.5, 16], "rotation": 180, "texture": "#0"},
				"down": {"uv": [0, 11.5, 4.5, 13.5], "texture": "#0"}
			}
		},
		{
			"name": "l2",
			"from": [6, 14, 1],
			"to": [15, 15, 4.25],
			"faces": {
				"north": {"uv": [0, 13.5, 4.5, 14], "texture": "#0"},
				"east": {"uv": [4.5, 11.5, 5, 13.5], "rotation": 270, "texture": "#0"},
				"south": {"uv": [0, 11, 4.5, 11.5], "rotation": 180, "texture": "#0"},
				"west": {"uv": [4.5, 14, 5, 16], "rotation": 90, "texture": "#0"},
				"up": {"uv": [0, 14, 4.5, 16], "rotation": 180, "texture": "#0"},
				"down": {"uv": [0, 11.5, 4.5, 13.5], "texture": "#0"}
			}
		},
		{
			"name": "s2",
			"from": [1.75, 14, 1],
			"to": [4.25, 15, 4.25],
			"faces": {
				"north": {"uv": [14.25, 1.625, 15.5, 2.125], "texture": "#0"},
				"east": {"uv": [15.5, 0, 16, 1.625], "rotation": 270, "texture": "#0"},
				"south": {"uv": [14.25, 3.75, 15.5, 4.25], "rotation": 180, "texture": "#0"},
				"west": {"uv": [13.75, 0, 14.25, 1.625], "rotation": 90, "texture": "#0"},
				"up": {"uv": [14.25, 0, 15.5, 1.625], "rotation": 180, "texture": "#0"},
				"down": {"uv": [14.25, 2.125, 15.5, 3.75], "texture": "#0"}
			}
		},
		{
			"name": "s1",
			"from": [11.75, 1, 1],
			"to": [14.25, 2, 4.25],
			"faces": {
				"north": {"uv": [14.25, 1.625, 15.5, 2.125], "texture": "#0"},
				"east": {"uv": [15.5, 0, 16, 1.625], "rotation": 270, "texture": "#0"},
				"south": {"uv": [14.25, 3.75, 15.5, 4.25], "rotation": 180, "texture": "#0"},
				"west": {"uv": [13.75, 0, 14.25, 1.625], "rotation": 90, "texture": "#0"},
				"up": {"uv": [14.25, 0, 15.5, 1.625], "rotation": 180, "texture": "#0"},
				"down": {"uv": [14.25, 2.125, 15.5, 3.75], "texture": "#0"}
			}
		}
	]
}